{
  "LazyVim": { "branch": "main", "commit": "3f034d0a7f58031123300309f2efd3bb0356ee21" },
  "SchemaStore.nvim": { "branch": "main", "commit": "c183ec0ee5847642f3e8a2de881fc9cfebec1536" },
  "blink.cmp": { "branch": "main", "commit": "dcda20d3aa345025699a920c45b0a0603551f41d" },
  "bufferline.nvim": { "branch": "main", "commit": "655133c3b4c3e5e05ec549b9f8cc2894ac6f51b3" },
  "catppuccin": { "branch": "main", "commit": "5b5e3aef9ad7af84f463d17b5479f06b87d5c429" },
  "clangd_extensions.nvim": { "branch": "main", "commit": "db28f29be928d18cbfb86fbfb9f83f584f658feb" },
  "conform.nvim": { "branch": "master", "commit": "db8a4a9edb217067b1d7a2e0362c74bfe9cc944d" },
  "dial.nvim": { "branch": "master", "commit": "34bbd9c387c358190e61ce71017faad3dffa7a74" },
  "flash.nvim": { "branch": "main", "commit": "3c942666f115e2811e959eabbdd361a025db8b63" },
  "friendly-snippets": { "branch": "main", "commit": "efff286dd74c22f731cdec26a70b46e5b203c619" },
  "fzf-lua": { "branch": "main", "commit": "832985ce64a5e32393112fab3ef2c15304e6a4bb" },
  "gitsigns.nvim": { "branch": "main", "commit": "4c40357994f386e72be92a46f41fc1664c84c87d" },
  "grug-far.nvim": { "branch": "main", "commit": "ae74e90423cc851fdc2212e5ca42e99444ca5156" },
  "harpoon": { "branch": "harpoon2", "commit": "ed1f853847ffd04b2b61c314865665e1dadf22c7" },
  "indent-blankline.nvim": { "branch": "master", "commit": "7871a88056f7144defca9c931e311a3134c5d509" },
  "lazy.nvim": { "branch": "main", "commit": "6c3bda4aca61a13a9c63f1c1d1b16b9d3be90d7a" },
  "lazydev.nvim": { "branch": "main", "commit": "2367a6c0a01eb9edb0464731cc0fb61ed9ab9d2c" },
  "lua-utils.nvim": { "branch": "main", "commit": "e565749421f4bbb5d2e85e37c3cef9d56553d8bd" },
  "lualine.nvim": { "branch": "master", "commit": "f4f791f67e70d378a754d02da068231d2352e5bc" },
  "markdown-preview.nvim": { "branch": "master", "commit": "a923f5fc5ba36a3b17e289dc35dc17f66d0548ee" },
  "mason-lspconfig": { "branch": "main", "commit": "1a31f824b9cd5bc6f342fc29e9a53b60d74af245" },
  "mason-lspconfig.nvim": { "branch": "main", "commit": "1a31f824b9cd5bc6f342fc29e9a53b60d74af245" },
  "mason.nvim": { "branch": "main", "commit": "fc98833b6da5de5a9c5b1446ac541577059555be" },
  "mini.ai": { "branch": "main", "commit": "6e01c0e5a15554852546fac9853960780ac52ed4" },
  "mini.hipatterns": { "branch": "main", "commit": "fbf1e2195fdd65cf1bc970316c28098257728868" },
  "mini.icons": { "branch": "main", "commit": "ec61af6e606fc89ee3b1d8f2f20166a3ca917a36" },
  "mini.move": { "branch": "main", "commit": "c8b30e92dd2668dd6e56a9a23cb7d4ee38c2266d" },
  "mini.pairs": { "branch": "main", "commit": "1a3e73649c0eaef2f6c48ce1e761c6f0a7c11918" },
  "neo-tree.nvim": { "branch": "main", "commit": "940063ec5c2c81f455d25dbc7e0b918774f5e924" },
  "neorg": { "branch": "main", "commit": "ed43ed58116caa0a17bbbc7aa663e32bf94bc531" },
  "noice.nvim": { "branch": "main", "commit": "0427460c2d7f673ad60eb02b35f5e9926cf67c59" },
  "nord.nvim": { "branch": "master", "commit": "80c1e5321505aeb22b7a9f23eb82f1e193c12470" },
  "nui.nvim": { "branch": "main", "commit": "8d3bce9764e627b62b07424e0df77f680d47ffdb" },
  "nvim-cmp": { "branch": "main", "commit": "f17d9b4394027ff4442b298398dfcaab97e40c4f" },
  "nvim-lint": { "branch": "master", "commit": "6e9dd545a1af204c4022a8fcd99727ea41ffdcc8" },
  "nvim-lspconfig": { "branch": "master", "commit": "fd26f8626c03b424f7140d454031d1dcb8d23513" },
  "nvim-nio": { "branch": "master", "commit": "21f5324bfac14e22ba26553caf69ec76ae8a7662" },
  "nvim-treesitter": { "branch": "master", "commit": "38959800c2439c890e3238af559f0dc3be45e393" },
  "nvim-treesitter-textobjects": { "branch": "master", "commit": "143856b1cee509a190cc8c17ddb0638002171235" },
  "nvim-ts-autotag": { "branch": "main", "commit": "a1d526af391f6aebb25a8795cbc05351ed3620b5" },
  "pathlib.nvim": { "branch": "main", "commit": "57e5598af6fe253761c1b48e0b59b7cd6699e2c1" },
  "persistence.nvim": { "branch": "main", "commit": "166a79a55bfa7a4db3e26fc031b4d92af71d0b51" },
  "plenary.nvim": { "branch": "master", "commit": "857c5ac632080dba10aae49dba902ce3abf91b35" },
  "refactoring.nvim": { "branch": "master", "commit": "5268cc6add06ba8862492063341a568d18d65fb6" },
  "render-markdown.nvim": { "branch": "main", "commit": "a03ed82dfdeb1a4980093609ffe94c171ace8059" },
  "snacks.nvim": { "branch": "main", "commit": "bc0630e43be5699bb94dadc302c0d21615421d93" },
  "todo-comments.nvim": { "branch": "main", "commit": "304a8d204ee787d2544d8bc23cd38d2f929e7cc5" },
  "tokyonight.nvim": { "branch": "main", "commit": "057ef5d260c1931f1dffd0f052c685dcd14100a3" },
  "trouble.nvim": { "branch": "main", "commit": "85bedb7eb7fa331a2ccbecb9202d8abba64d37b3" },
  "ts-comments.nvim": { "branch": "main", "commit": "1bd9d0ba1d8b336c3db50692ffd0955fe1bb9f0c" },
  "venv-selector.nvim": { "branch": "regexp", "commit": "e82594274bf7b54387f9a2abe65f74909ac66e97" },
  "vim-dadbod": { "branch": "master", "commit": "9f0ca8bcef704659820a95c3bbd2c262583a66a1" },
  "vim-dadbod-completion": { "branch": "master", "commit": "3f5783c12e184e4b6f05dfcbd7c1a6da05b4d66e" },
  "vim-dadbod-ui": { "branch": "master", "commit": "f4d37b7312ae6489e5c04bee654ca521baac188a" },
  "which-key.nvim": { "branch": "main", "commit": "370ec46f710e058c9c1646273e6b225acf47cbed" },
  "yanky.nvim": { "branch": "main", "commit": "80d9385dbebe7049fd1961d7909b835a58ce9dcc" }
}
